<?xml version="1.0" encoding="utf-8"?>
<!-- Generator: Adobe Illustrator 22.1.0, SVG Export Plug-In . SVG Version: 6.00 Build 0)  -->
<svg version="1.1" id="Слой_1" xmlns="http://www.w3.org/2000/svg" xmlns:xlink="http://www.w3.org/1999/xlink" x="0px" y="0px"
	 viewBox="0 0 24 24" enable-background="new 0 0 24 24" xml:space="preserve">
<path d="M1.635,5.954C4.382,1.245,9.957-1.02,15.21,0.439c-0.409,0.549-0.719,1.165-0.919,1.819
	C9.943,1.238,5.445,3.227,3.273,7.129c-2.172,3.903-1.492,8.773,1.666,11.931c3.158,3.158,8.029,3.838,11.931,1.666
	c3.903-2.172,5.891-6.67,4.871-11.018c0.655-0.199,1.27-0.51,1.819-0.919c1.458,5.252-0.807,10.828-5.515,13.575
	c-4.708,2.747-10.677,1.975-14.531-1.88C-0.34,16.631-1.112,10.662,1.635,5.954z M15.109,8.042c1.816,0,2.57,1.052,2.57,1.993
	c-0.008,0.741-0.447,1.409-1.124,1.71v0.035c0.841,0.272,1.414,1.052,1.423,1.936c0,1.411-1.184,2.354-2.989,2.354
	c-1.971,0.005-2.878-1.106-2.878-2.158c0-0.878,0.556-1.66,1.386-1.948v-0.036c-0.673-0.297-1.111-0.959-1.123-1.694
	C12.373,8.92,13.556,8.042,15.109,8.042z M9.668,8.171v7.772H7.911V9.788H7.889l-1.483,0.705L6.107,9.132l2.055-0.96H9.668z
	 M14.907,12.573c-0.551,0.112-0.946,0.597-0.945,1.159c-0.007,0.292,0.107,0.574,0.314,0.78c0.207,0.206,0.49,0.317,0.782,0.308
	c0.273,0.026,0.545-0.064,0.749-0.249c0.203-0.184,0.32-0.446,0.32-0.721l-0.002,0.001C16.126,13.171,15.627,12.765,14.907,12.573z
	 M14.349,9.508c-0.18,0.172-0.277,0.414-0.267,0.663c0,0.526,0.477,0.861,1.096,1.052c0.454-0.121,0.775-0.526,0.789-0.996
	c0.019-0.257-0.074-0.51-0.255-0.693c-0.181-0.183-0.433-0.279-0.69-0.263C14.774,9.25,14.529,9.336,14.349,9.508z M21.01,0.001
	V2.99h2.989v1.993H21.01v2.989h-1.993V4.983h-2.989V2.99h2.989V0.001H21.01z"/>
</svg>
